{
  "npmci": {
    "npmGlobalTools": [],
    "npmAccessLevel": "public"
  },
  "gitzone": {
    "projectType": "npm",
    "module": {
      "githost": "gitlab.com",
      "gitscope": "tsclass",
      "gitrepo": "tsclass",
      "shortDescription": "common classes for TypeScript",
      "npmPackagename": "@tsclass/tsclass",
      "license": "MIT"
    }
  }
}